%YAML 1.1
%TAG !u! tag:unity3d.com,2011:
--- !u!1045 &1
EditorBuildSettings:
  m_ObjectHideFlags: 0
  serializedVersion: 2
  m_Scenes:
  - enabled: 1
    path: Assets/Scenes/TitleScene.unity
    guid: 3ae85fb1427245e47a9d0c58f28d7ee8
  - enabled: 1
    path: Assets/Scenes/Level1.unity
    guid: 681db83421e2b0444ab704d64ff45d2f
  - enabled: 1
    path: Assets/Scenes/Level2.unity
    guid: 7697bc9e591cd0447a607660f10e7bb4
  - enabled: 1
    path: Assets/Scenes/Level3.unity
    guid: 1b245ef66af5f144bafdec5652f854c2
  - enabled: 1
    path: Assets/Scenes/Level4.unity
    guid: c97e9fa203b33d34fb64e76e9b5a3b33
  - enabled: 1
    path: Assets/Scenes/Level5.unity
    guid: b142bfccf55e3e840a4c3170cf8b6f1d
  - enabled: 1
    path: Assets/Scenes/Level6.unity
    guid: 97b4bba21a49e364f8fcca7de28dea58
  - enabled: 1
    path: Assets/Scenes/Level7.unity
    guid: c571a7b207b7b4e47b0a1f45c6cff74c
  - enabled: 1
    path: Assets/Scenes/Level8.unity
    guid: d644befcf10a1694e9cb6aa383f8fe11
  - enabled: 1
    path: Assets/Scenes/Level9.unity
    guid: f6b89199e4c00d84d9559ea1ab8e676c
  - enabled: 1
    path: Assets/Scenes/Level10.unity
    guid: dcba7b5f9e57a1d4bbc44eff6a2cabc4
  - enabled: 1
    path: Assets/Scenes/Level11.unity
    guid: 94df0b93b94b2a046a9656709816e5f6
